<svg width="100px" height="100px" xmlns="http://www.w3.org/2000/svg" xmlns:svg="http://www.w3.org/2000/svg" viewBox="7 7 85 85" >
 <g class="layer">
  <title>Layer 1</title>
  <path d="m48.69203,10.85018l-23.12723,7.34245l-14.03092,19.38169l-0.35672,24.13793l14.38763,20.33294l22.82996,7.25327l23.66231,-7.25327l13.43639,-19.26278l0.47562,-25.32699l-14.50654,-18.90606l-22.77051,-7.69917z" fill="#34c8ff" id="svg_9"/>
  <g id="svg_1">
   <path d="m48.65625,9.6875l-23.78125,7.75l-14.71875,20.21875l0,25.03125l14.71875,20.21875l23.78125,7.75l23.78125,-7.75l14.71875,-20.21875l0,-25.03125l-14.71875,-20.21875l-23.78125,-7.75zm-0.15625,2.3125l21.25,6.9375l-8.125,11.28125l-26.28125,0l-8.125,-11.28125l21.28125,-6.9375zm23.3125,8.375l13.125,18.125l-0.15625,22.375l-13.21875,-4.3125l-8,-25.03125l8.25,-11.15625zm-46.09375,0.25l8.125,11.25c-2.75972,8.31063 -5.52153,16.6268 -8.28125,24.9375l-13.25,4.15625l0.09375,-22.375l13.3125,-17.96875zm10.21875,11.9375l25.4375,0l7.875,24.1875l-20.59375,14.96875l-20.59375,-14.96875l7.875,-24.1875zm35.0625,26.15625c4.39886,1.4426 8.78864,2.8698 13.1875,4.3125l-13.09375,18.15625c-7.09309,2.291 -14.18816,4.584 -21.28125,6.875l-0.0625,-13.90625c7.08087,-5.1521 14.16913,-10.2855 21.25,-15.4375zm-44.71875,0.0625l21.1875,15.5l-0.09375,13.90625c-7.09062,-2.3182 -14.19063,-4.65055 -21.28125,-6.96875c-4.3423,-6.0584 -8.68895,-12.09785 -13.03125,-18.15625l13.21875,-4.28125z" fill="#000000" id="svg_2" stroke-opacity="0"/>
  </g>
  <polygon cx="5.76694" cy="35.70155" edge="0" fill="#000000" id="svg_6" orient="x" shape="regularPoly" sides="5" strokecolor="none"/>
  <polygon cx="15.16052" cy="43.90606" edge="0" fill="#000000" id="svg_7" orient="x" shape="regularPoly" sides="5" strokecolor="none"/>
 </g>
</svg>